\relax 
\providecommand\hyper@newdestlabel[2]{}
\providecommand\HyperFirstAtBeginDocument{\AtBeginDocument}
\HyperFirstAtBeginDocument{\ifx\hyper@anchor\@undefined
\global\let\oldcontentsline\contentsline
\gdef\contentsline#1#2#3#4{\oldcontentsline{#1}{#2}{#3}}
\global\let\oldnewlabel\newlabel
\gdef\newlabel#1#2{\newlabelxx{#1}#2}
\gdef\newlabelxx#1#2#3#4#5#6{\oldnewlabel{#1}{{#2}{#3}}}
\AtEndDocument{\ifx\hyper@anchor\@undefined
\let\contentsline\oldcontentsline
\let\newlabel\oldnewlabel
\fi}
\fi}
\global\let\hyper@last\relax 
\gdef\HyperFirstAtBeginDocument#1{#1}
\providecommand\HyField@AuxAddToFields[1]{}
\providecommand\HyField@AuxAddToCoFields[2]{}
\@input{Diapositive/Intro.aux}
\@writefile{toc}{\beamer@endinputifotherversion {3.36pt}}
\@writefile{nav}{\beamer@endinputifotherversion {3.36pt}}
\select@language{italian}
\@writefile{toc}{\select@language{italian}}
\@writefile{lof}{\select@language{italian}}
\@writefile{lot}{\select@language{italian}}
\select@language{italian}
\@writefile{toc}{\select@language{italian}}
\@writefile{lof}{\select@language{italian}}
\@writefile{lot}{\select@language{italian}}
\@input{Diapositive/re.aux}
\@writefile{toc}{\beamer@sectionintoc {1}{Runaway electrons}{3}{0}{1}}
\@writefile{nav}{\headcommand {\sectionentry {1}{Runaway electrons}{3}{Runaway electrons}{0}}}
\@writefile{nav}{\headcommand {\beamer@sectionpages {1}{2}}}
\@writefile{nav}{\headcommand {\beamer@subsectionpages {1}{2}}}
\@input{Diapositive/mlem.aux}
\@writefile{toc}{\beamer@sectionintoc {2}{Algoritmo ML-EM}{6}{0}{2}}
\@writefile{nav}{\headcommand {\sectionentry {2}{Algoritmo ML-EM}{6}{Algoritmo ML-EM}{0}}}
\@writefile{nav}{\headcommand {\beamer@sectionpages {3}{5}}}
\@writefile{nav}{\headcommand {\beamer@subsectionpages {3}{5}}}
\@input{Diapositive/pet.aux}
\@writefile{toc}{\beamer@sectionintoc {3}{Ricostruzione di immagini PET}{8}{0}{3}}
\@writefile{nav}{\headcommand {\sectionentry {3}{Ricostruzione di immagini PET}{8}{Ricostruzione di immagini PET}{0}}}
\@writefile{nav}{\headcommand {\beamer@sectionpages {6}{7}}}
\@writefile{nav}{\headcommand {\beamer@subsectionpages {6}{7}}}
\@input{Diapositive/convalida.aux}
\@writefile{toc}{\beamer@sectionintoc {4}{Convalida codice}{9}{0}{4}}
\@writefile{nav}{\headcommand {\sectionentry {4}{Convalida codice}{9}{Convalida codice}{0}}}
\@writefile{nav}{\headcommand {\beamer@sectionpages {8}{8}}}
\@writefile{nav}{\headcommand {\beamer@subsectionpages {8}{8}}}
\@input{Diapositive/runaway.aux}
\@writefile{toc}{\beamer@sectionintoc {5}{Spettri AUG}{11}{0}{5}}
\@writefile{nav}{\headcommand {\sectionentry {5}{Spettri AUG}{11}{Spettri AUG}{0}}}
\@writefile{nav}{\headcommand {\beamer@sectionpages {9}{10}}}
\@writefile{nav}{\headcommand {\beamer@subsectionpages {9}{10}}}
\@input{Diapositive/Conclusioni.aux}
\@writefile{toc}{\beamer@sectionintoc {6}{Conclusioni}{17}{0}{6}}
\@writefile{nav}{\headcommand {\sectionentry {6}{Conclusioni}{17}{Conclusioni}{0}}}
\@writefile{nav}{\headcommand {\beamer@sectionpages {11}{16}}}
\@writefile{nav}{\headcommand {\beamer@subsectionpages {11}{16}}}
\@writefile{nav}{\headcommand {\beamer@partpages {1}{18}}}
\@writefile{nav}{\headcommand {\beamer@subsectionpages {17}{18}}}
\@writefile{nav}{\headcommand {\beamer@sectionpages {17}{18}}}
\@writefile{nav}{\headcommand {\beamer@documentpages {18}}}
\@writefile{nav}{\headcommand {\def \inserttotalframenumber {18}}}
