\relax 
\providecommand\hyper@newdestlabel[2]{}
\@writefile{nav}{\headcommand {\slideentry {5}{0}{1}{11/11}{}{0}}}
\@writefile{nav}{\headcommand {\beamer@framepages {11}{11}}}
\@writefile{nav}{\headcommand {\slideentry {5}{0}{2}{12/12}{}{0}}}
\@writefile{nav}{\headcommand {\beamer@framepages {12}{12}}}
\@writefile{nav}{\headcommand {\slideentry {5}{0}{3}{13/13}{}{0}}}
\@writefile{nav}{\headcommand {\beamer@framepages {13}{13}}}
\@writefile{nav}{\headcommand {\slideentry {5}{0}{4}{14/14}{}{0}}}
\@writefile{nav}{\headcommand {\beamer@framepages {14}{14}}}
\@writefile{nav}{\headcommand {\slideentry {5}{0}{5}{15/15}{}{0}}}
\@writefile{nav}{\headcommand {\beamer@framepages {15}{15}}}
\@writefile{nav}{\headcommand {\slideentry {5}{0}{6}{16/16}{}{0}}}
\@writefile{nav}{\headcommand {\beamer@framepages {16}{16}}}
\@setckpt{Diapositive/runaway}{
\setcounter{page}{17}
\setcounter{equation}{0}
\setcounter{enumi}{0}
\setcounter{enumii}{0}
\setcounter{enumiii}{0}
\setcounter{enumiv}{0}
\setcounter{footnote}{0}
\setcounter{mpfootnote}{0}
\setcounter{beamerpauses}{1}
\setcounter{bookmark@seq@number}{5}
\setcounter{lecture}{0}
\setcounter{part}{0}
\setcounter{section}{5}
\setcounter{subsection}{0}
\setcounter{subsubsection}{0}
\setcounter{subsectionslide}{6}
\setcounter{framenumber}{16}
\setcounter{figure}{0}
\setcounter{table}{0}
\setcounter{parentequation}{0}
\setcounter{theorem}{0}
\setcounter{section@level}{0}
}
